{
	"name":"efwdDal",

	"include":[
		{
			"path":"${QOOXDOO_PATH}/tool/data/config/application.json"
		}
	],

	"export":[
		"api",
		"api-data",
		"clean",
		"distclean",
		"fix",
		"info",
		"inspector",
		"lint",
		"migration",
		"pretty",
		"test",
		"test-source",
		"translation"
	],

	"let":{
		"APPLICATION":"efwdDal",
		"APPLICATION_MAIN_CLASS":"${APPLICATION}.demo.Demo",
		"QOOXDOO_PATH":"../qooxdoo/qooxdoo-1.6-sdk",
		//"QXTHEME"      : "efwdDal.theme.modern.Theme",
		"QXTHEME":"qx.theme.Modern",
		"API_EXCLUDE":["qx.test.*", "efwdDal.demo.*", "${APPLICATION}.theme.*", "${APPLICATION}.test.*"],
		"LOCALES":[ "en" ],
		"CACHE":"${TMPDIR}/qx${QOOXDOO_VERSION}/cache",
		"ROOT":"."
	},

	// You only need to edit the remainder of this file, if you want to customize
	// specific jobs, or add own job definitions.

	"jobs":{
		"libraries":{
			"library":[
				{
					"manifest":"../library/Manifest.json"
				}
			]
		}

		// If you want to tweak a job setting, see the following sample where
		// the "format" feature of the "build-script" job is overridden.
		// To see a list of available jobs, invoke 'generate.py x'.
		/*
		 ,"build-script" :
		 {
		 "compile-options" :
		 {
		 "code" :
		 {
		 "format" : false
		 }
		 }
		 }
		 */
	}
}
